HLT_j15
HLT_j25
HLT_j35
HLT_j60
HLT_j110
HLT_j175
HLT_j260
HLT_j360
HLT_j380
HLT_j400
HLT_j420
HLT_j440
HLT_j450
HLT_j460
HLT_j480
HLT_j500
HLT_j225_gsc400_boffperf_split
HLT_j225_gsc420_boffperf_split
HLT_j225_gsc440_boffperf_split
HLT_j225_gsc450_boffperf_split
HLT_j225_gsc460_boffperf_split
HLT_j225_gsc480_boffperf_split
HLT_j225_gsc500_boffperf_split
HLT_j260_a10_lcw_L1J75
HLT_j300_a10_lcw_L1J75
HLT_j360_a10_lcw_L1J100
HLT_j380_a10_lcw_L1J100
HLT_j400_a10_lcw_L1J100
HLT_j420_a10_lcw_L1J100
HLT_j440_a10_lcw_L1J100
HLT_j460_a10_lcw_L1J100
HLT_j260_320eta490
HLT_3j200
HLT_4j100
HLT_j260_a10r_L1J75
HLT_j300_a10r_L1J75
HLT_j360_a10r_L1J100
HLT_j380_a10r_L1J100
HLT_j400_a10r_L1J100
HLT_j420_a10r_L1J100
HLT_j440_a10r_L1J100
HLT_j460_a10r_L1J100
HLT_j480_a10r_L1J100
HLT_j260_a10_lcw_sub_L1J75
HLT_j360_a10_lcw_sub_L1J100
HLT_j460_a10_lcw_sub_L1J100
HLT_j110_a10_lcw_subjes_L1J30
HLT_j260_a10_lcw_subjes_L1J75
HLT_j420_a10_lcw_subjes_L1J100
HLT_j440_a10_lcw_subjes_L1J100
HLT_j460_a10_lcw_subjes_L1J100
HLT_j480_a10_lcw_subjes_L1J100
HLT_j500_a10_lcw_subjes_L1J100
HLT_j260_a10t_lcw_jes_L1J75
HLT_j420_a10t_lcw_jes_L1J100
HLT_j440_a10t_lcw_jes_L1J100
HLT_j460_a10t_lcw_jes_L1J100
HLT_j480_a10t_lcw_jes_L1J100
HLT_j500_a10t_lcw_jes_L1J100
HLT_j520_a10t_lcw_jes_L1J100
HLT_j540_a10t_lcw_jes_L1J100
HLT_ht1000_L1J100
HLT_j340_a10t_lcw_jes_60smcINF_j340_a10t_lcw_jes_L1SC111
HLT_j360_a10t_lcw_jes_60smcINF_j360_a10t_lcw_jes_L1SC111
HLT_j400_a10t_lcw_jes_30smcINF_j300_a10t_lcw_jes_30smcINF_L1J100
HLT_j350_a10t_lcw_jes_30smcINF_j300_a10t_lcw_jes_30smcINF_L1J100
HLT_j320_a10t_lcw_jes_30smcINF_j250_a10t_lcw_jes_30smcINF_L1J100
HLT_j400_a10t_lcw_jes_35smcINF_j300_a10t_lcw_jes_35smcINF_L1J100
HLT_j350_a10t_lcw_jes_35smcINF_j300_a10t_lcw_jes_35smcINF_L1J100
HLT_j320_a10t_lcw_jes_35smcINF_j250_a10t_lcw_jes_35smcINF_L1J100
HLT_j400_a10t_lcw_jes_40smcINF_j300_a10t_lcw_jes_40smcINF_L1J100
HLT_j350_a10t_lcw_jes_40smcINF_j300_a10t_lcw_jes_40smcINF_L1J100
HLT_j320_a10t_lcw_jes_40smcINF_j250_a10t_lcw_jes_40smcINF_L1J100
HLT_j375_a10t_lcw_jes_30smcINF_L1J100
HLT_j375_a10t_lcw_jes_30smcINF_L1SC111
HLT_j390_a10t_lcw_jes_30smcINF_L1J100
HLT_j390_a10t_lcw_jes_30smcINF_L1SC111
HLT_j420_a10t_lcw_jes_30smcINF_L1J100
HLT_j420_a10t_lcw_jes_30smcINF_L1SC111
HLT_j440_a10t_lcw_jes_30smcINF_L1J100
HLT_j440_a10t_lcw_jes_30smcINF_L1SC111
HLT_j375_a10t_lcw_jes_35smcINF_L1J100
HLT_j375_a10t_lcw_jes_35smcINF_L1SC111
HLT_j390_a10t_lcw_jes_35smcINF_L1J100
HLT_j390_a10t_lcw_jes_35smcINF_L1SC111
HLT_j420_a10t_lcw_jes_35smcINF_L1J100
HLT_j420_a10t_lcw_jes_35smcINF_L1SC111
HLT_j440_a10t_lcw_jes_35smcINF_L1J100
HLT_j440_a10t_lcw_jes_35smcINF_L1SC111
HLT_j375_a10t_lcw_jes_40smcINF_L1J100
HLT_j375_a10t_lcw_jes_40smcINF_L1SC111
HLT_j390_a10t_lcw_jes_40smcINF_L1J100
HLT_j390_a10t_lcw_jes_40smcINF_L1SC111
HLT_j420_a10t_lcw_jes_40smcINF_L1J100
HLT_j420_a10t_lcw_jes_40smcINF_L1SC111
HLT_j440_a10t_lcw_jes_40smcINF_L1J100
HLT_j440_a10t_lcw_jes_40smcINF_L1SC111
